\relax 
\catcode `"\active 
\abx@aux@sortscheme{none}
\abx@aux@refcontext{none/global/}
\@writefile{toc}{\boolfalse {citerequest}\boolfalse {citetracker}\boolfalse {pagetracker}\boolfalse {backtracker}\relax }
\@writefile{lof}{\boolfalse {citerequest}\boolfalse {citetracker}\boolfalse {pagetracker}\boolfalse {backtracker}\relax }
\@writefile{lot}{\boolfalse {citerequest}\boolfalse {citetracker}\boolfalse {pagetracker}\boolfalse {backtracker}\relax }
\select@language{russian}
\@writefile{toc}{\defcounter {refsection}{0}\relax }\@writefile{toc}{\select@language{russian}}
\@writefile{lof}{\defcounter {refsection}{0}\relax }\@writefile{lof}{\select@language{russian}}
\@writefile{lot}{\defcounter {refsection}{0}\relax }\@writefile{lot}{\select@language{russian}}
\@writefile{toc}{\defcounter {refsection}{0}\relax }\@writefile{toc}{\contentsline {section}{Задание}{2}}
\@writefile{toc}{\defcounter {refsection}{0}\relax }\@writefile{toc}{\contentsline {section}{Реферат}{3}}
\@writefile{toc}{\defcounter {refsection}{0}\relax }\@writefile{toc}{\contentsline {section}{Введение}{6}}
\@writefile{lof}{\defcounter {refsection}{0}\relax }\@writefile{lof}{\contentsline {figure}{\numberline {1}{\ignorespaces Поврежденный кадр видеопотока\relax }}{6}}
\providecommand*\caption@xref[2]{\@setref\relax\@undefined{#1}}
\newlabel{useless_methods}{{1}{6}}
\@writefile{toc}{\defcounter {refsection}{0}\relax }\@writefile{toc}{\contentsline {section}{\numberline {1}Мультимедийный фреймворк}{8}}
\@writefile{lof}{\defcounter {refsection}{0}\relax }\@writefile{lof}{\contentsline {figure}{\numberline {2}{\ignorespaces Процесс обработки каждого кадра видеопотока\relax }}{8}}
\newlabel{handling}{{2}{8}}
\abx@aux@cite{wiki_MLT}
\abx@aux@segm{0}{0}{wiki_MLT}
\abx@aux@cite{wiki_FFmpeg}
\abx@aux@segm{0}{0}{wiki_FFmpeg}
\abx@aux@cite{wiki_GStreamer}
\abx@aux@segm{0}{0}{wiki_GStreamer}
\@writefile{toc}{\defcounter {refsection}{0}\relax }\@writefile{toc}{\contentsline {subsection}{\numberline {1.1}Обзор фреймворков}{9}}
\@writefile{toc}{\defcounter {refsection}{0}\relax }\@writefile{toc}{\contentsline {subsection}{\numberline {1.2}GStreamer и FFmpeg}{10}}
\@writefile{toc}{\defcounter {refsection}{0}\relax }\@writefile{toc}{\contentsline {section}{\numberline {2}Алгоритмы сжатия}{12}}
\@writefile{toc}{\defcounter {refsection}{0}\relax }\@writefile{toc}{\contentsline {subsection}{\numberline {2.1}Алгоритмы сжатия без потерь}{12}}
\@writefile{toc}{\defcounter {refsection}{0}\relax }\@writefile{toc}{\contentsline {subsubsection}{\numberline {2.1.1}Фундаментальные методы сжатия}{12}}
\@writefile{toc}{\defcounter {refsection}{0}\relax }\@writefile{toc}{\contentsline {paragraph}{\numberline {2.1.1.1}Кодирование повторов}{13}}
\@writefile{toc}{\defcounter {refsection}{0}\relax }\@writefile{toc}{\contentsline {paragraph}{\numberline {2.1.1.2}Преобразование Берроуза-Уилера}{13}}
\@writefile{lot}{\defcounter {refsection}{0}\relax }\@writefile{lot}{\contentsline {table}{\numberline {1}{\ignorespaces Пример работы преобразования Берроуза-Уилера\relax }}{14}}
\newlabel{tbl:example_of_working}{{1}{14}}
\@writefile{toc}{\defcounter {refsection}{0}\relax }\@writefile{toc}{\contentsline {subsubsection}{\numberline {2.1.2}Алгоритмы энтропийного кодирования}{14}}
\@writefile{toc}{\defcounter {refsection}{0}\relax }\@writefile{toc}{\contentsline {paragraph}{\numberline {2.1.2.1}Алгоритм Шеннона $-$ Фано}{15}}
\@writefile{lot}{\defcounter {refsection}{0}\relax }\@writefile{lot}{\contentsline {table}{\numberline {2}{\ignorespaces Частота символов\relax }}{16}}
\newlabel{tbl:example_of_Shannon}{{2}{16}}
\@writefile{lof}{\defcounter {refsection}{0}\relax }\@writefile{lof}{\contentsline {figure}{\numberline {3}{\ignorespaces Дерево Шеннона-Фано\relax }}{16}}
\newlabel{Shannon}{{3}{16}}
\@writefile{lot}{\defcounter {refsection}{0}\relax }\@writefile{lot}{\contentsline {table}{\numberline {3}{\ignorespaces Коды символов\relax }}{17}}
\newlabel{tbl:example_of_Shannon}{{3}{17}}
\@writefile{toc}{\defcounter {refsection}{0}\relax }\@writefile{toc}{\contentsline {paragraph}{\numberline {2.1.2.2}Алгоритм Хаффмана}{17}}
\@writefile{lof}{\defcounter {refsection}{0}\relax }\@writefile{lof}{\contentsline {figure}{\numberline {4}{\ignorespaces Дерево Хаффмана\relax }}{18}}
\newlabel{Huffman}{{4}{18}}
\@writefile{lot}{\defcounter {refsection}{0}\relax }\@writefile{lot}{\contentsline {table}{\numberline {4}{\ignorespaces Коды символов, полученные алгоритмом Хаффмана\relax }}{19}}
\newlabel{tbl:example_of_Huffman}{{4}{19}}
\@writefile{toc}{\defcounter {refsection}{0}\relax }\@writefile{toc}{\contentsline {paragraph}{\numberline {2.1.2.3}Арифметическое кодирование}{19}}
\@writefile{lof}{\defcounter {refsection}{0}\relax }\@writefile{lof}{\contentsline {figure}{\numberline {5}{\ignorespaces Процесс арифметического кодирования сообщения\relax }}{20}}
\newlabel{Arithmetic}{{5}{20}}
\@writefile{toc}{\defcounter {refsection}{0}\relax }\@writefile{toc}{\contentsline {subsubsection}{\numberline {2.1.3}Подстановочные алгоритмы сжатия}{20}}
\@writefile{toc}{\defcounter {refsection}{0}\relax }\@writefile{toc}{\contentsline {paragraph}{\numberline {2.1.3.1}LZ77}{20}}
\@writefile{lof}{\defcounter {refsection}{0}\relax }\@writefile{lof}{\contentsline {figure}{\numberline {6}{\ignorespaces Иерархия алгоритмов сжатия без потерь\relax }}{21}}
\newlabel{Lossless Compression Algorithms}{{6}{21}}
\@writefile{toc}{\defcounter {refsection}{0}\relax }\@writefile{toc}{\contentsline {subsection}{\numberline {2.2}Алгоритмы сжатия с потерями}{21}}
\abx@aux@cite{Sobel}
\abx@aux@segm{0}{0}{Sobel}
\@writefile{lof}{\defcounter {refsection}{0}\relax }\@writefile{lof}{\contentsline {figure}{\numberline {7}{\ignorespaces Исходное изображение\relax }}{22}}
\newlabel{Lenna}{{7}{22}}
\@writefile{toc}{\defcounter {refsection}{0}\relax }\@writefile{toc}{\contentsline {subsubsection}{\numberline {2.2.1}Алгоритмы выделения границ}{22}}
\@writefile{toc}{\defcounter {refsection}{0}\relax }\@writefile{toc}{\contentsline {paragraph}{\numberline {2.2.1.1}Оператор Собеля}{22}}
\abx@aux@cite{Laplace}
\abx@aux@segm{0}{0}{Laplace}
\@writefile{lof}{\defcounter {refsection}{0}\relax }\@writefile{lof}{\contentsline {figure}{\numberline {8}{\ignorespaces Оператор Собеля наложенный на исходное изображение\relax }}{24}}
\newlabel{Sobel_X}{{8}{24}}
\@writefile{lof}{\defcounter {refsection}{0}\relax }\@writefile{lof}{\contentsline {subfigure}{\numberline{(a)}{\ignorespaces {по горизонтали}}}{24}}
\@writefile{lof}{\defcounter {refsection}{0}\relax }\@writefile{lof}{\contentsline {subfigure}{\numberline{(b)}{\ignorespaces {по вертикали}}}{24}}
\@writefile{toc}{\defcounter {refsection}{0}\relax }\@writefile{toc}{\contentsline {paragraph}{\numberline {2.2.1.2}Дискретный оператор Лапласа}{24}}
\@writefile{lof}{\defcounter {refsection}{0}\relax }\@writefile{lof}{\contentsline {figure}{\numberline {9}{\ignorespaces Оператор Собеля наложенный на исходное изображение и по вертикали и по горизонтали\relax }}{25}}
\newlabel{Sobel}{{9}{25}}
\@writefile{toc}{\defcounter {refsection}{0}\relax }\@writefile{toc}{\contentsline {paragraph}{\numberline {2.2.1.3}Детектор границ Кэнни}{25}}
\abx@aux@cite{aCanny}
\abx@aux@segm{0}{0}{aCanny}
\abx@aux@cite{Canny}
\abx@aux@segm{0}{0}{Canny}
\@writefile{lof}{\defcounter {refsection}{0}\relax }\@writefile{lof}{\contentsline {figure}{\numberline {10}{\ignorespaces Оператор Лапласа наложенный на исходное изображение\relax }}{26}}
\newlabel{Laplacian}{{10}{26}}
\abx@aux@cite{dithering}
\abx@aux@segm{0}{0}{dithering}
\abx@aux@cite{Al_ditherting}
\abx@aux@segm{0}{0}{Al_ditherting}
\@writefile{lof}{\defcounter {refsection}{0}\relax }\@writefile{lof}{\contentsline {figure}{\numberline {11}{\ignorespaces Результат детектора границ Кэнни\relax }}{28}}
\newlabel{Canny}{{11}{28}}
\@writefile{toc}{\defcounter {refsection}{0}\relax }\@writefile{toc}{\contentsline {subsubsection}{\numberline {2.2.2}Псевдотонирование}{28}}
\@writefile{lof}{\defcounter {refsection}{0}\relax }\@writefile{lof}{\contentsline {figure}{\numberline {12}{\ignorespaces Псевдотонирование с одномерным рассеиванием ошибок\relax }}{30}}
\newlabel{dithering}{{12}{30}}
\@writefile{toc}{\defcounter {refsection}{0}\relax }\@writefile{toc}{\contentsline {paragraph}{\numberline {2.2.2.1}Алгоритм рассеивания ошибок Флойда-Стейнберга}{30}}
\@writefile{lof}{\defcounter {refsection}{0}\relax }\@writefile{lof}{\contentsline {figure}{\numberline {13}{\ignorespaces Псевдотонирование алгоритмом Флойда-Стейнберга\relax }}{31}}
\newlabel{Floyd_Steinberg}{{13}{31}}
\@writefile{toc}{\defcounter {refsection}{0}\relax }\@writefile{toc}{\contentsline {paragraph}{\numberline {2.2.2.2}Алгоритм рассеивания ошибок Штуки}{32}}
\@writefile{lof}{\defcounter {refsection}{0}\relax }\@writefile{lof}{\contentsline {figure}{\numberline {14}{\ignorespaces Псевдотонирование алгоритмом Штуки\relax }}{32}}
\newlabel{Stucki}{{14}{32}}
\@writefile{toc}{\defcounter {refsection}{0}\relax }\@writefile{toc}{\contentsline {paragraph}{\numberline {2.2.2.3}Алгоритм рассеивания ошибок Аткинсона}{32}}
\@writefile{lof}{\defcounter {refsection}{0}\relax }\@writefile{lof}{\contentsline {figure}{\numberline {15}{\ignorespaces Псевдотонирование алгоритмом Аткинсона\relax }}{33}}
\newlabel{Atkinson}{{15}{33}}
\abx@aux@cite{GStreamer_Application}
\abx@aux@segm{0}{0}{GStreamer_Application}
\@writefile{toc}{\defcounter {refsection}{0}\relax }\@writefile{toc}{\contentsline {section}{\numberline {3}Реализация}{34}}
\@writefile{toc}{\defcounter {refsection}{0}\relax }\@writefile{toc}{\contentsline {subsection}{\numberline {3.1}Архитектура GStreamer}{34}}
\@writefile{lof}{\defcounter {refsection}{0}\relax }\@writefile{lof}{\contentsline {figure}{\numberline {16}{\ignorespaces Конвейер GStreamer для простейшего ogg-плейера\relax }}{36}}
\newlabel{simple-player}{{16}{36}}
\@writefile{lof}{\defcounter {refsection}{0}\relax }\@writefile{lof}{\contentsline {figure}{\numberline {17}{\ignorespaces Механизмы взаимодействия и осуществления обмена данными между приложением (application) и конвейером (pipeline)\relax }}{38}}
\newlabel{communication}{{17}{38}}
\@writefile{toc}{\defcounter {refsection}{0}\relax }\@writefile{toc}{\contentsline {subsection}{\numberline {3.2}Существующие стандарты}{38}}
\@writefile{toc}{\defcounter {refsection}{0}\relax }\@writefile{toc}{\contentsline {subsubsection}{\numberline {3.2.1}Стандарт H.263P}{38}}
\@writefile{toc}{\defcounter {refsection}{0}\relax }\@writefile{toc}{\contentsline {subsubsection}{\numberline {3.2.2}Стандарт H.264}{39}}
\@writefile{toc}{\defcounter {refsection}{0}\relax }\@writefile{toc}{\contentsline {subsubsection}{\numberline {3.2.3}Стандарт MPEG-4 Part 14}{39}}
\@writefile{toc}{\defcounter {refsection}{0}\relax }\@writefile{toc}{\contentsline {subsubsection}{\numberline {3.2.4}Стандарт JPEG}{40}}
\@writefile{toc}{\defcounter {refsection}{0}\relax }\@writefile{toc}{\contentsline {subsection}{\numberline {3.3}?????}{40}}
\abx@aux@cite{zlib1}
\abx@aux@segm{0}{0}{zlib1}
\abx@aux@cite{zlib2}
\abx@aux@segm{0}{0}{zlib2}
\@writefile{toc}{\defcounter {refsection}{0}\relax }\@writefile{toc}{\contentsline {section}{\numberline {4}Анализ алгоритмов сжатия с потерями}{41}}
\@writefile{lot}{\defcounter {refsection}{0}\relax }\@writefile{lot}{\contentsline {table}{\numberline {5}{\ignorespaces Сравнение алгоритмов сжатия c потерями\relax }}{42}}
\newlabel{tbl:algorithms}{{5}{42}}
\@writefile{toc}{\defcounter {refsection}{0}\relax }\@writefile{toc}{\contentsline {section}{Заключение}{43}}
\abx@aux@refcontextdefaultsdone
\abx@aux@defaultrefcontext{0}{wiki_MLT}{none/global/}
\abx@aux@defaultrefcontext{0}{wiki_FFmpeg}{none/global/}
\abx@aux@defaultrefcontext{0}{wiki_GStreamer}{none/global/}
\abx@aux@defaultrefcontext{0}{GStreamer_Application}{none/global/}
\abx@aux@defaultrefcontext{0}{Sobel}{none/global/}
\abx@aux@defaultrefcontext{0}{Laplace}{none/global/}
\abx@aux@defaultrefcontext{0}{aCanny}{none/global/}
\abx@aux@defaultrefcontext{0}{Canny}{none/global/}
\abx@aux@defaultrefcontext{0}{dithering}{none/global/}
\abx@aux@defaultrefcontext{0}{Al_ditherting}{none/global/}
\abx@aux@defaultrefcontext{0}{zlib1}{none/global/}
\abx@aux@defaultrefcontext{0}{zlib2}{none/global/}
\@writefile{toc}{\defcounter {refsection}{0}\relax }\@writefile{toc}{\contentsline {section}{Список использованных источников}{44}}
\providecommand\totalcount@set[2]{}
\totalcount@set{figure}{17}
\totalcount@set{table}{5}
\totalcount@set{page}{45}
