% $ biblatex auxiliary file $
% $ biblatex bbl format version 2.8 $
% Do not modify the above lines!
%
% This is an auxiliary file used by the 'biblatex' package.
% This file may safely be deleted. It will be recreated by
% biber as required.
%
\begingroup
\makeatletter
\@ifundefined{ver@biblatex.sty}
  {\@latex@error
     {Missing 'biblatex' package}
     {The bibliography requires the 'biblatex' package.}
      \aftergroup\endinput}
  {}
\endgroup


\refsection{0}
  \sortlist[entry]{none/global/}
    \entry{wiki_MLT}{online}{}
      \field{sortinit}{1}
      \field{sortinithash}{27a2bc5dfb9ed0a0422134d636544b5d}
      \field{labeltitlesource}{title}
      \field{title}{Media Lovin' Toolkit}
      \field{year}{2018}
      \verb{url}
      \verb https://en.wikipedia.org/wiki/Media_Lovin%27_Toolkit
      \endverb
    \endentry
    \entry{wiki_FFmpeg}{online}{}
      \field{sortinit}{2}
      \field{sortinithash}{0aa614ace9f3a40ef5a67e7f7a184048}
      \field{labeltitlesource}{title}
      \field{title}{FFmpeg}
      \field{year}{2018}
      \verb{url}
      \verb https://en.wikipedia.org/wiki/FFmpeg
      \endverb
    \endentry
    \entry{wiki_GStreamer}{online}{}
      \field{sortinit}{3}
      \field{sortinithash}{197da6d6c34c6b20ce45c4d4baace5a4}
      \field{labeltitlesource}{title}
      \field{title}{GStreamer}
      \field{year}{2018}
      \verb{url}
      \verb https://en.wikipedia.org/wiki/GStreamer
      \endverb
    \endentry
    \entry{GStreamer_Application}{book}{useauthor=false}
      \name{author}{5}{}{%
        {{hash=96bb43f500fd05ec3e423393a0dfa21f}{%
           family={Taymans},
           familyi={T\bibinitperiod},
           given={Whore},
           giveni={W\bibinitperiod}}}%
        {{hash=be883e052b0fd46e3454f05b04e2b6ac}{%
           family={Snake},
           familyi={S\bibinitperiod},
           given={Baker},
           giveni={B\bibinitperiod}}}%
        {{hash=b19d96248a40df8b8699ef1c7c6da50e}{%
           family={Atlas},
           familyi={A\bibinitperiod},
           given={Wingo},
           giveni={W\bibinitperiod}}}%
        {{hash=3ac21f316c2d54c2b4f02b9fe2b02aea}{%
           family={Roger},
           familyi={R\bibinitperiod},
           given={Bultje},
           giveni={B\bibinitperiod}}}%
        {{hash=dbd76d8a0446f9b4e03270df37ff5105}{%
           family={Sir},
           familyi={S\bibinitperiod},
           given={Kost},
           giveni={K\bibinitperiod}}}%
      }
      \strng{authornamehash}{bae9bbd8bb969a9293ad78c7be219105}
      \strng{authorfullhash}{b720161c612417224bf1b670cb8063b8}
      \field{sortinit}{4}
      \field{sortinithash}{d221becdd544034cf9082056cd6e6d2d}
      \field{labeltitlesource}{title}
      \field{title}{GStreamer Application Development Manual}
      \field{year}{2018}
    \endentry
    \entry{Sobel}{online}{}
      \field{sortinit}{5}
      \field{sortinithash}{c9df3c9fb8f555dd9201cedc5e343021}
      \field{labeltitlesource}{title}
      \field{title}{Sobel operator}
      \field{year}{2018}
      \verb{url}
      \verb https://en.wikipedia.org/wiki/Sobel_operator
      \endverb
    \endentry
    \entry{Laplace}{online}{}
      \field{sortinit}{6}
      \field{sortinithash}{02bbed3ed82f61ae046619460488516d}
      \field{labeltitlesource}{title}
      \field{title}{Discrete Laplace operator}
      \field{year}{2018}
      \verb{url}
      \verb https://en.wikipedia.org/wiki/Discrete_Laplace_operator
      \endverb
    \endentry
    \entry{aCanny}{article}{}
      \name{author}{1}{}{%
        {{hash=fa344b67077711bfaa0525254de2977a}{%
           family={Canny},
           familyi={C\bibinitperiod},
           given={John},
           giveni={J\bibinitperiod}}}%
      }
      \strng{namehash}{fa344b67077711bfaa0525254de2977a}
      \strng{fullhash}{fa344b67077711bfaa0525254de2977a}
      \strng{authornamehash}{fa344b67077711bfaa0525254de2977a}
      \strng{authorfullhash}{fa344b67077711bfaa0525254de2977a}
      \field{sortinit}{7}
      \field{sortinithash}{6ac7fe70cdec8cba8f65694411ce2532}
      \field{labelnamesource}{author}
      \field{labeltitlesource}{title}
      \field{journaltitle}{IEEE transactions on pattern analysis and machine intelligence}
      \field{title}{A Computational Approach to Edge Detection}
      \field{year}{1986}
      \field{number}{6}
      \range{number}{1}
      \field{pages}{679\bibrangedash 698}
      \range{pages}{20}
      \field{volume}{PAMI\bibrangedash 8}
      \range{volume}{-1}
      \verb{url}
      \verb https://perso.limsi.fr/vezien/PAPIERS_ACS/canny1986.pdf
      \endverb
    \endentry
    \entry{Canny}{online}{}
      \field{sortinit}{7}
      \field{sortinithash}{6ac7fe70cdec8cba8f65694411ce2532}
      \field{labeltitlesource}{title}
      \field{title}{Canny edge detector}
      \field{year}{2018}
      \verb{url}
      \verb https://en.wikipedia.org/wiki/Canny_edge_detector
      \endverb
    \endentry
    \entry{dithering}{online}{}
      \field{sortinit}{8}
      \field{sortinithash}{2f1b0e69e7617f99664f1cd00bb9603c}
      \field{labeltitlesource}{title}
      \field{title}{Dither}
      \field{year}{2018}
      \verb{url}
      \verb https://en.wikipedia.org/wiki/Dither
      \endverb
    \endentry
    \entry{Al_ditherting}{article}{}
      \name{author}{1}{}{%
        {{hash=ab2e87717f2227011880244334b1f712}{%
           family={Helland},
           familyi={H\bibinitperiod},
           given={Tanner},
           giveni={T\bibinitperiod}}}%
      }
      \strng{namehash}{ab2e87717f2227011880244334b1f712}
      \strng{fullhash}{ab2e87717f2227011880244334b1f712}
      \strng{authornamehash}{ab2e87717f2227011880244334b1f712}
      \strng{authorfullhash}{ab2e87717f2227011880244334b1f712}
      \field{sortinit}{9}
      \field{sortinithash}{2999ebab86052e6d71b434385f8b4ed2}
      \field{labelnamesource}{author}
      \field{labeltitlesource}{title}
      \field{title}{Image Dithering: Eleven Algorithms and Source Code}
      \field{year}{2018}
      \verb{url}
      \verb http://www.tannerhelland.com/4660/dithering-eleven-algorithms-source-code/
      \endverb
    \endentry
    \entry{zlib1}{online}{}
      \field{sortinit}{1}
      \field{sortinithash}{27a2bc5dfb9ed0a0422134d636544b5d}
      \field{labeltitlesource}{title}
      \field{title}{zlib}
      \field{year}{2018}
      \verb{url}
      \verb https://en.wikipedia.org/wiki/Zlib
      \endverb
    \endentry
    \entry{zlib2}{online}{}
      \field{sortinit}{1}
      \field{sortinithash}{27a2bc5dfb9ed0a0422134d636544b5d}
      \field{labeltitlesource}{title}
      \field{title}{zlib}
      \field{year}{2018}
      \verb{url}
      \verb http://zlib.net
      \endverb
    \endentry
  \endsortlist
\endrefsection
\endinput

